<svg xmlns="http://www.w3.org/2000/svg" viewBox="0 0 244.1 214.1"><style type="text/css">  
	.st0{fill:#FFFFFF;}
	.st1{fill:#22395E;}
	.st2{fill:#F54A4F;}
</style><path class="st0" d="M244 75c0 45.2 0 90.3 0.1 135.5 0 3-0.6 3.7-3.6 3.6 -10.8-0.2-21.7-0.1-32.5-0.1 2.1-1.2 3.7-2.8 5-5 6.2-10.4 10.7-21.4 13.1-33.2 0.6-2.9 1.6-4.8 4.7-6.2 8.8-4.3 10.9-17.2 2.9-22.4 -5.8-3.7-6.7-8.3-7.6-13.8 -0.3-1.6-0.7-3.3-1.1-4.9 -4.3-15.7-11.4-29.9-22.5-42.2 -4.4 7.3-4.4 7.3 0.2 13.8 8.4 11.9 13.7 25 16.1 39.3 0.4 2.3 0.6 4.2-1.9 6 -8.9 6.4-8.9 16.3-0.2 23.4 1.3 1.1 1.9 1.9 1.6 3.7 -2 10.9-5.8 21.1-11.5 30.6 -1 1.6-1.7 2-3.4 0.7 -5.9-4.8-12.7-6.2-20.2-4.8 -1.7 0.3-2.8 0.8-3.3-1.9 -2.2-12.5-10.1-19.1-22.7-19.1 -2.8 0-4-0.7-4.7-3.5 -1.1-3.9-4.6-5.8-8.2-6.5 -3.3-0.7-6.7 1-8 3.9 -1.7 4-4.5 4.2-7.9 3.8 -1.3-0.1-2.8 0.6-3.7-0.8 -1.1-1.8 0.8-2.6 1.6-3.7 3.9-5.6 5.6-11.6 2.2-17.8 -4.1-7.4-10.3-11.7-19.3-10.4 -7.3 1.1-12.1 5.6-13.9 12.6 -0.7 2.8-2.1 3.6-4.6 4.2 -16.8 3.6-27.1 18.8-24 35.7 0.5 3 0.1 3.9-3 3.3 -5.8-1-11.6 0.2-16.1 3.8 -3.8 3.1-4.8 1-6.3-1.8 -9.9-18-14.2-37.3-11.4-57.7 5-36 24.5-61.4 57.3-76.7 2.6-1.2 4.5-1.3 7.2 0.5 5.5 3.9 12.2 2.1 15.2-3.9 1.3-2.5 2.7-3.4 5.2-3.6 9.7-1 19.4-0.7 28.8 1.6 4.2 1 6.1-0.1 7.1-3.9 0.2-0.9 0.7-1.8 1-2.7 -10.1-3.5-23.5-4.7-39.7-3.3 -2.1 0.2-3.7-0.1-5.5-1.4 -5.9-4.4-13.1-2.5-16.2 4.3 -1 2.1-2.2 3.1-4.1 3.8C71 63.8 58 73.2 47 85.3c-30.4 33.5-34.9 86.3-10.6 123.8 1.9 3 3.9 4.1 7.6 4.1 50.1-0.1 100.3-0.1 150.4 0 1.9 0 4-0.9 5.6 0.8 -64.9 0-129.8 0-194.7 0.1 -3.3 0-4.5-0.3-4.5-4.2C1.1 184.2 1 158.6 1 133c1.4 0.7 2.8 2 4.4 0.2 0.9-1 0.8-2.1 0.1-3.2 -1.4-1.9-3-0.3-4.5-0.1C1 88.4 1 46.8 0.9 5.1c0-3.1 0.2-4.3 3.9-4.3C83.3 1 161.7 1 240.1 0.9c3.6 0 4 0.9 4 4.2C243.9 27 244 49 244 71c-1.1-0.2-0.8-1.3-1.2-1.9 -2.3-3.5-5.4-5-9.4-3.4 -3.9 1.5-5.6 4.6-4.7 8.7 0.9 4.1 4.2 6 8.6 5.8C240.9 80 242.1 77.1 244 75zM202.4 38.8c-0.2-1.1 0-2.5-0.6-3.4 -3.2-4.5-8.5-5.9-13.4-6.9 -4.1-0.9-6.4 2.9-7.8 6.4 -2.2 5.9-5.8 10.2-11.8 12.7 -4.7 2-8.2 5.8-10.3 10.5 -7.5 16.8-15 33.7-22.3 50.6 -3 6.9-1 11.8 5.9 15.2 5.3 2.7 10.8 5.1 16.3 7.4 10 4.2 14.6 2.4 19-7.5 6.8-15.3 13.5-30.7 20.4-46 2.7-6.1 3.2-12.2 1.2-18.4 -1.4-4.2-1.1-8.1 0.6-12.1C200.8 44.6 202.5 42 202.4 38.8zM51.8 155.1c-0.1-42.9 36.1-76.4 77.9-72.9 2.1 0.2 4.3 0.6 6.4 0.8 0.6 0.1 1.4 0 1.5-0.9 0.2-0.8-0.4-1.2-1-1.4 -1-0.3-1.9-0.5-2.9-0.6 -46.1-5.6-85.9 30.4-84.6 76.6 0.3 11.1 3 21.7 8.2 31.6 0.4 0.8 0.4 2.8 2.2 1.7 1.1-0.6 0.5-1.7 0.2-2.7 -0.3-0.6-0.5-1.2-0.8-1.8C53.9 175.7 51.7 165.3 51.8 155.1zM199 158.4c0-14.9-2.8-27.1-7.6-36.3 -0.6-1.2-0.9-3.6-2.7-2.9 -2.1 0.9-0.2 2.6 0.4 3.7 9.7 21 9.9 42 0.1 63 -0.5 1.1-2.5 2.8-0.4 3.8 1.8 0.8 2.2-1.5 2.8-2.7C196.4 176.8 198.9 166 199 158.4zM44.2 56c-0.1-3.6-2-5.6-5.2-5.7 -3.2-0.1-5.4 1.9-5.4 5.3 -0.1 3.3 1.8 5.3 5.2 5.4C42.2 61.1 44 59.2 44.2 56zM198.9 20c-4 0.3-6.4 1.5-6.9 4.9 -0.2 1.1 6.4 5.1 8 4.8 2.3-0.4 2.9-3 2.6-4.2C202.1 23.1 201.5 20.1 198.9 20zM144.9 4.9c-0.3-1.5-1.2-2.4-2.7-2.3 -1.5 0.1-2.4 1-2.2 2.6 0.1 1.4 1.1 2 2.4 2C143.8 7.3 144.7 6.5 144.9 4.9z"/><path class="st1" d="M200 214c-1.7-1.7-3.8-0.8-5.6-0.8 -50.1-0.1-100.3-0.1-150.4 0 -3.6 0-5.6-1.1-7.6-4.1C12.1 171.6 16.6 118.8 47 85.3c11-12.2 24-21.5 39.3-27.5 1.9-0.7 3.1-1.8 4.1-3.8 3.1-6.8 10.3-8.6 16.2-4.3 1.8 1.3 3.4 1.6 5.5 1.4 16.2-1.4 29.6-0.3 39.7 3.3 -0.3 0.9-0.7 1.8-1 2.7 -1 3.8-2.9 4.9-7.1 3.9 -9.4-2.3-19.1-2.6-28.8-1.6 -2.5 0.3-4 1.1-5.2 3.6 -3 6-9.8 7.8-15.2 3.9 -2.6-1.9-4.6-1.7-7.2-0.5 -32.8 15.3-52.3 40.6-57.3 76.7 -2.8 20.5 1.5 39.7 11.4 57.7 1.5 2.8 2.6 4.8 6.3 1.8 4.5-3.7 10.2-4.8 16.1-3.8 3.1 0.5 3.5-0.4 3-3.3 -3-16.9 7.2-32.1 24-35.7 2.5-0.5 3.8-1.3 4.6-4.2 1.8-7 6.5-11.5 13.9-12.6 8.9-1.3 15.2 3 19.3 10.4 3.4 6.2 1.7 12.2-2.2 17.8 -0.8 1.1-2.7 1.9-1.6 3.7 0.9 1.5 2.4 0.7 3.7 0.8 3.4 0.4 6.2 0.2 7.9-3.8 1.3-3 4.7-4.6 8-3.9 3.6 0.8 7.1 2.6 8.2 6.5 0.7 2.8 1.8 3.5 4.7 3.5 12.6 0 20.6 6.7 22.7 19.1 0.5 2.7 1.6 2.2 3.3 1.9 7.4-1.5 14.2 0 20.2 4.8 1.7 1.3 2.4 0.9 3.4-0.7 5.7-9.5 9.5-19.7 11.5-30.6 0.3-1.8-0.3-2.6-1.6-3.7 -8.7-7-8.7-17 0.2-23.4 2.6-1.8 2.3-3.7 1.9-6 -2.4-14.3-7.7-27.4-16.1-39.3 -4.6-6.5-4.6-6.5-0.2-13.8 11.1 12.3 18.2 26.5 22.5 42.2 0.4 1.6 0.8 3.2 1.1 4.9 0.9 5.5 1.8 10 7.6 13.8 8 5.2 5.9 18.1-2.9 22.4 -3 1.5-4.1 3.4-4.7 6.2 -2.4 11.8-6.9 22.9-13.1 33.2 -1.3 2.1-2.9 3.7-5 5C205.3 214 202.7 214 200 214z"/><path class="st1" d="M244 75c-1.9 2.1-3.1 5-6.7 5.2 -4.4 0.2-7.7-1.7-8.6-5.8 -0.9-4.1 0.8-7.2 4.7-8.7 4-1.6 7.1-0.1 9.4 3.4 0.4 0.6 0.1 1.7 1.2 1.9C244 72.3 244 73.7 244 75z"/><path class="st1" d="M1 130c1.5-0.3 3-1.8 4.5 0.1 0.8 1 0.8 2.1-0.1 3.2 -1.5 1.8-3 0.5-4.4-0.2C1 132 1 131 1 130z"/><path class="st1" d="M202.4 38.8c0.1 3.2-1.6 5.8-2.8 8.5 -1.7 4-2 7.9-0.6 12.1 2 6.2 1.6 12.4-1.2 18.4 -6.9 15.3-13.6 30.7-20.4 46 -4.4 9.9-8.9 11.7-19 7.5 -5.5-2.3-11-4.7-16.3-7.4 -6.9-3.4-8.9-8.3-5.9-15.2 7.3-16.9 14.8-33.8 22.3-50.6 2.1-4.7 5.6-8.5 10.3-10.5 6-2.5 9.6-6.8 11.8-12.7 1.4-3.6 3.7-7.3 7.8-6.4 4.9 1 10.1 2.4 13.4 6.9C202.4 36.2 202.2 37.6 202.4 38.8zM165.8 127.3c3.8 0.1 4.7-2.6 5.8-5 7.1-15.9 14.1-31.9 21.2-47.8 1.9-4.2 2.3-8.6 0.8-12.6 -2.7-6.8-1.4-13 1.5-19.2 1.4-2.9 2.1-5.1-2-6.5 -3.3-1.1-6-2.9-7.7 2.1 -2.3 6.4-6.2 11.5-13.1 14.1 -4.5 1.7-7.3 5.5-9.2 10 -5.7 13.2-11.7 26.4-17.4 39.6 -6.4 14.7-8.6 13.2 7.9 20.6C157.7 124.4 161.6 126.8 165.8 127.3z"/><path class="st2" d="M51.8 155.1c-0.2 10.1 2.1 20.6 7 30.5 0.3 0.6 0.6 1.2 0.8 1.8 0.4 0.9 1 2-0.2 2.7 -1.8 1-1.8-1-2.2-1.7 -5.1-9.9-7.9-20.5-8.2-31.6 -1.2-46.3 38.5-82.3 84.6-76.6 1 0.1 2 0.3 2.9 0.6 0.6 0.2 1.2 0.6 1 1.4 -0.2 0.9-0.9 1-1.5 0.9 -2.1-0.2-4.3-0.6-6.4-0.8C88 78.7 51.7 112.3 51.8 155.1z"/><path class="st2" d="M199 158.4c-0.1 7.6-2.5 18.4-7.4 28.6 -0.6 1.2-0.9 3.6-2.8 2.7 -2.1-0.9-0.2-2.6 0.4-3.8 9.7-21 9.5-42-0.1-63 -0.5-1.2-2.5-2.8-0.4-3.7 1.8-0.8 2.1 1.7 2.7 2.9C196.2 131.4 199 143.5 199 158.4z"/><path class="st1" d="M44.2 56c-0.3 3.2-2 5.1-5.4 5 -3.4-0.1-5.3-2.1-5.2-5.4 0.1-3.3 2.2-5.4 5.4-5.3C42.2 50.4 44.1 52.5 44.2 56z"/><path class="st1" d="M198.9 20c2.6 0.2 3.2 3.2 3.7 5.5 0.3 1.2-0.3 3.8-2.6 4.2 -1.6 0.3-8.2-3.7-8-4.8C192.5 21.4 194.9 20.3 198.9 20z"/><path class="st1" d="M144.9 4.9c-0.2 1.6-1.1 2.4-2.6 2.3 -1.2 0-2.2-0.6-2.4-2 -0.1-1.6 0.7-2.5 2.2-2.6C143.7 2.6 144.6 3.4 144.9 4.9z"/><path class="st0" d="M165.8 127.3c-4.2-0.5-8.1-2.9-12.2-4.7 -16.5-7.3-14.3-5.8-7.9-20.6 5.8-13.2 11.7-26.4 17.4-39.6 1.9-4.5 4.7-8.3 9.2-10 6.9-2.6 10.8-7.7 13.1-14.1 1.8-5 4.5-3.2 7.7-2.1 4 1.4 3.4 3.6 2 6.5 -3 6.2-4.2 12.4-1.5 19.2 1.6 4 1.1 8.4-0.8 12.6 -7.1 15.9-14.1 31.8-21.2 47.8C170.5 124.7 169.6 127.4 165.8 127.3zM186.9 77.9c-0.3-0.5-0.6-0.9-0.9-1.4 -7.4 8.6-17.5 11.1-27.5 13.8 -1.9 0.5-3.4 1.9-4.3 3.9 -1.8 4.5-3.9 8.8-5.8 13.3 -1.6 3.6-0.8 6.5 3 8.1 3.5 1.5 7 3 10.5 4.6 3.4 1.5 5.8 0.6 7.3-2.7C175.2 104.3 181.1 91.1 186.9 77.9z"/><path class="st2" d="M186.9 77.9c-5.9 13.2-11.8 26.4-17.7 39.6 -1.5 3.3-3.9 4.3-7.3 2.7 -3.5-1.6-7-3.1-10.5-4.6 -3.9-1.7-4.6-4.5-3-8.1 1.9-4.4 4-8.8 5.8-13.3 0.8-2 2.3-3.4 4.3-3.9 10.1-2.7 20.2-5.2 27.5-13.8C186.3 77 186.6 77.4 186.9 77.9z"/></svg>